==================== Setup ==================== 

Filesystem type       btrfs
Disk size (MB)        200.0
Test device           /dev/cow_ram0
Flags device          /dev/nvme0n1
Test path             build/tests/generated_workloads/

================================================


--------------------Test #1--------------------
2021-08-25 10:34:03.397 Running test : j-lang3as Crashmonkey standalone 
Running test #1 : j-lang32021-08-25 10:34:03.401 
Error inserting RAM disk module
2021-08-25 10:34:03.403 Retry running j-lang3
2021-08-25 10:34:03.403 Running... 2021-08-25 10:34:03.405 
Error starting socket to listen on 98
2021-08-25 10:34:03.407 Retry running j-lang3
2021-08-25 10:34:03.407 Running... 2021-08-25 10:34:03.409 
Error inserting RAM disk module
2021-08-25 10:34:03.413 Retry running j-lang3
2021-08-25 10:34:03.413 Running... 2021-08-25 10:34:03.415 Could not run test : j-lang3
--------------------Test #2--------------------
2021-08-25 10:34:03.455 Running test : j-lang2as Crashmonkey standalone 
Running test #2 : j-lang22021-08-25 10:34:03.458 
Error inserting RAM disk module
2021-08-25 10:34:03.460 Retry running j-lang2
2021-08-25 10:34:03.460 Running... 2021-08-25 10:34:03.462 
Error starting socket to listen on 98
2021-08-25 10:34:03.465 Retry running j-lang2
2021-08-25 10:34:03.465 Running... 2021-08-25 10:34:03.467 
Error inserting RAM disk module
2021-08-25 10:34:03.470 Retry running j-lang2
2021-08-25 10:34:03.470 Running... 2021-08-25 10:34:03.472 Could not run test : j-lang2
--------------------Test #3--------------------
2021-08-25 10:34:03.515 Running test : j-lang1as Crashmonkey standalone 
Running test #3 : j-lang12021-08-25 10:34:03.518 
Error inserting RAM disk module
2021-08-25 10:34:03.520 Retry running j-lang1
2021-08-25 10:34:03.520 Running... 2021-08-25 10:34:03.522 
Error starting socket to listen on 98
2021-08-25 10:34:03.525 Retry running j-lang1
2021-08-25 10:34:03.525 Running... 2021-08-25 10:34:03.528 
Error inserting RAM disk module
2021-08-25 10:34:03.531 Retry running j-lang1
2021-08-25 10:34:03.531 Running... 2021-08-25 10:34:03.533 Could not run test : j-lang1
--------------------Test #4--------------------
2021-08-25 10:34:03.575 Running test : j-lang6as Crashmonkey standalone 
Running test #4 : j-lang62021-08-25 10:34:03.579 
Error inserting RAM disk module
2021-08-25 10:34:03.581 Retry running j-lang6
2021-08-25 10:34:03.581 Running... 2021-08-25 10:34:03.583 
Error starting socket to listen on 98
2021-08-25 10:34:03.585 Retry running j-lang6
2021-08-25 10:34:03.585 Running... 2021-08-25 10:34:03.588 
Error inserting RAM disk module
2021-08-25 10:34:03.592 Retry running j-lang6
2021-08-25 10:34:03.592 Running... 2021-08-25 10:34:03.595 Could not run test : j-lang6
--------------------Test #5--------------------
2021-08-25 10:34:03.637 Running test : j-lang14as Crashmonkey standalone 
Running test #5 : j-lang142021-08-25 10:34:03.640 
Error inserting RAM disk module
2021-08-25 10:34:03.642 Retry running j-lang14
2021-08-25 10:34:03.642 Running... 2021-08-25 10:34:03.644 
Error starting socket to listen on 98
2021-08-25 10:34:03.646 Retry running j-lang14
2021-08-25 10:34:03.646 Running... 2021-08-25 10:34:03.649 
Error inserting RAM disk module
2021-08-25 10:34:03.652 Retry running j-lang14
2021-08-25 10:34:03.652 Running... 2021-08-25 10:34:03.655 Could not run test : j-lang14
--------------------Test #6--------------------
2021-08-25 10:34:03.697 Running test : j-lang12as Crashmonkey standalone 
Running test #6 : j-lang122021-08-25 10:34:03.700 
Error inserting RAM disk module
2021-08-25 10:34:03.702 Retry running j-lang12
2021-08-25 10:34:03.702 Running... 2021-08-25 10:34:03.704 
Error starting socket to listen on 98
2021-08-25 10:34:03.706 Retry running j-lang12
2021-08-25 10:34:03.706 Running... 2021-08-25 10:34:03.710 
Error inserting RAM disk module
2021-08-25 10:34:03.713 Retry running j-lang12
2021-08-25 10:34:03.713 Running... 2021-08-25 10:34:03.715 Could not run test : j-lang12
--------------------Test #7--------------------
2021-08-25 10:34:03.759 Running test : j-lang4as Crashmonkey standalone 
Running test #7 : j-lang42021-08-25 10:34:03.762 
Error inserting RAM disk module
2021-08-25 10:34:03.765 Retry running j-lang4
2021-08-25 10:34:03.765 Running... 2021-08-25 10:34:03.767 
Error starting socket to listen on 98
2021-08-25 10:34:03.770 Retry running j-lang4
2021-08-25 10:34:03.770 Running... 2021-08-25 10:34:03.773 
Error inserting RAM disk module
2021-08-25 10:34:03.776 Retry running j-lang4
2021-08-25 10:34:03.776 Running... 2021-08-25 10:34:03.778 Could not run test : j-lang4
--------------------Test #8--------------------
2021-08-25 10:34:03.822 Running test : j-lang10as Crashmonkey standalone 
Running test #8 : j-lang102021-08-25 10:34:03.825 
Error inserting RAM disk module
2021-08-25 10:34:03.827 Retry running j-lang10
2021-08-25 10:34:03.827 Running... 2021-08-25 10:34:03.829 
Error starting socket to listen on 98
2021-08-25 10:34:03.831 Retry running j-lang10
2021-08-25 10:34:03.831 Running... 2021-08-25 10:34:03.835 
Error inserting RAM disk module
2021-08-25 10:34:03.838 Retry running j-lang10
2021-08-25 10:34:03.838 Running... 2021-08-25 10:34:03.840 Could not run test : j-lang10
--------------------Test #9--------------------
2021-08-25 10:34:03.882 Running test : j-lang13as Crashmonkey standalone 
Running test #9 : j-lang132021-08-25 10:34:03.885 
Error inserting RAM disk module
2021-08-25 10:34:03.887 Retry running j-lang13
2021-08-25 10:34:03.887 Running... 2021-08-25 10:34:03.889 
Error starting socket to listen on 98
2021-08-25 10:34:03.892 Retry running j-lang13
2021-08-25 10:34:03.892 Running... 2021-08-25 10:34:03.895 
Error inserting RAM disk module
2021-08-25 10:34:03.898 Retry running j-lang13
2021-08-25 10:34:03.898 Running... 2021-08-25 10:34:03.900 Could not run test : j-lang13
--------------------Test #10--------------------
2021-08-25 10:34:03.941 Running test : j-lang17as Crashmonkey standalone 
Running test #10 : j-lang172021-08-25 10:34:03.944 
Error inserting RAM disk module
2021-08-25 10:34:03.947 Retry running j-lang17
2021-08-25 10:34:03.947 Running... 2021-08-25 10:34:03.948 
Error starting socket to listen on 98
2021-08-25 10:34:03.950 Retry running j-lang17
2021-08-25 10:34:03.950 Running... 2021-08-25 10:34:03.953 
Error inserting RAM disk module
2021-08-25 10:34:03.955 Retry running j-lang17
2021-08-25 10:34:03.955 Running... 2021-08-25 10:34:03.957 Could not run test : j-lang17
--------------------Test #11--------------------
2021-08-25 10:34:03.998 Running test : j-lang16as Crashmonkey standalone 
Running test #11 : j-lang162021-08-25 10:34:04.1 
Error inserting RAM disk module
2021-08-25 10:34:04.4 Retry running j-lang16
2021-08-25 10:34:04.4 Running... 2021-08-25 10:34:04.14 
Error starting socket to listen on 98
2021-08-25 10:34:04.17 Retry running j-lang16
2021-08-25 10:34:04.17 Running... 2021-08-25 10:34:04.21 
Error inserting RAM disk module
2021-08-25 10:34:04.24 Retry running j-lang16
2021-08-25 10:34:04.24 Running... 2021-08-25 10:34:04.27 Could not run test : j-lang16
--------------------Test #12--------------------
2021-08-25 10:34:04.70 Running test : j-lang7as Crashmonkey standalone 
Running test #12 : j-lang72021-08-25 10:34:04.73 
Error inserting RAM disk module
2021-08-25 10:34:04.75 Retry running j-lang7
2021-08-25 10:34:04.75 Running... 2021-08-25 10:34:04.77 
Error starting socket to listen on 98
2021-08-25 10:34:04.80 Retry running j-lang7
2021-08-25 10:34:04.80 Running... 2021-08-25 10:34:04.84 
Error inserting RAM disk module
2021-08-25 10:34:04.87 Retry running j-lang7
2021-08-25 10:34:04.87 Running... 2021-08-25 10:34:04.89 Could not run test : j-lang7
--------------------Test #13--------------------
2021-08-25 10:34:04.134 Running test : j-lang8as Crashmonkey standalone 
Running test #13 : j-lang82021-08-25 10:34:04.137 
Error inserting RAM disk module
2021-08-25 10:34:04.140 Retry running j-lang8
2021-08-25 10:34:04.140 Running... 2021-08-25 10:34:04.142 
Error starting socket to listen on 98
2021-08-25 10:34:04.145 Retry running j-lang8
2021-08-25 10:34:04.145 Running... 2021-08-25 10:34:04.148 
Error inserting RAM disk module
2021-08-25 10:34:04.151 Retry running j-lang8
2021-08-25 10:34:04.151 Running... 2021-08-25 10:34:04.153 Could not run test : j-lang8
--------------------Test #14--------------------
2021-08-25 10:34:04.197 Running test : j-lang15as Crashmonkey standalone 
Running test #14 : j-lang152021-08-25 10:34:04.200 
Error inserting RAM disk module
2021-08-25 10:34:04.202 Retry running j-lang15
2021-08-25 10:34:04.202 Running... 2021-08-25 10:34:04.204 
Error starting socket to listen on 98
2021-08-25 10:34:04.207 Retry running j-lang15
2021-08-25 10:34:04.207 Running... 2021-08-25 10:34:04.210 
Error inserting RAM disk module
2021-08-25 10:34:04.213 Retry running j-lang15
2021-08-25 10:34:04.213 Running... 2021-08-25 10:34:04.216 Could not run test : j-lang15
--------------------Test #15--------------------
2021-08-25 10:34:04.261 Running test : j-lang9as Crashmonkey standalone 
Running test #15 : j-lang92021-08-25 10:34:04.264 
Error inserting RAM disk module
2021-08-25 10:34:04.266 Retry running j-lang9
2021-08-25 10:34:04.266 Running... 2021-08-25 10:34:04.268 
Error starting socket to listen on 98
2021-08-25 10:34:04.271 Retry running j-lang9
2021-08-25 10:34:04.271 Running... 2021-08-25 10:34:04.275 
Error inserting RAM disk module
2021-08-25 10:34:04.278 Retry running j-lang9
2021-08-25 10:34:04.278 Running... 2021-08-25 10:34:04.280 Could not run test : j-lang9
--------------------Test #16--------------------
2021-08-25 10:34:04.322 Running test : j-lang11as Crashmonkey standalone 
Running test #16 : j-lang112021-08-25 10:34:04.326 
Error inserting RAM disk module
2021-08-25 10:34:04.329 Retry running j-lang11
2021-08-25 10:34:04.329 Running... 2021-08-25 10:34:04.331 
Error starting socket to listen on 98
2021-08-25 10:34:04.333 Retry running j-lang11
2021-08-25 10:34:04.333 Running... 2021-08-25 10:34:04.336 
Error inserting RAM disk module
2021-08-25 10:34:04.339 Retry running j-lang11
2021-08-25 10:34:04.339 Running... 2021-08-25 10:34:04.341 Could not run test : j-lang11
--------------------Test #17--------------------
2021-08-25 10:34:04.384 Running test : j-lang5as Crashmonkey standalone 
Running test #17 : j-lang52021-08-25 10:34:04.387 
Error inserting RAM disk module
2021-08-25 10:34:04.390 Retry running j-lang5
2021-08-25 10:34:04.390 Running... 2021-08-25 10:34:04.392 
Error starting socket to listen on 98
2021-08-25 10:34:04.395 Retry running j-lang5
2021-08-25 10:34:04.395 Running... 2021-08-25 10:34:04.398 
Error inserting RAM disk module
2021-08-25 10:34:04.401 Retry running j-lang5
2021-08-25 10:34:04.401 Running... 2021-08-25 10:34:04.404 Could not run test : j-lang5
--------------------Test #18--------------------
2021-08-25 10:34:04.446 Running test : j-lang18as Crashmonkey standalone 
Running test #18 : j-lang182021-08-25 10:34:04.449 
Error inserting RAM disk module
2021-08-25 10:34:04.452 Retry running j-lang18
2021-08-25 10:34:04.452 Running... 2021-08-25 10:34:04.454 
Error starting socket to listen on 98
2021-08-25 10:34:04.457 Retry running j-lang18
2021-08-25 10:34:04.457 Running... 2021-08-25 10:34:04.461 
Error inserting RAM disk module
2021-08-25 10:34:04.464 Retry running j-lang18
2021-08-25 10:34:04.464 Running... 2021-08-25 10:34:04.467 Could not run test : j-lang18
2021-08-25 10:34:04.508 : Test completed. See 20210825_103403-xfsMonkey.log for test summary
